<?xml version="1.0" encoding="utf-8"?>
<!-- Generator: Adobe Illustrator 24.2.0, SVG Export Plug-In . SVG Version: 6.00 Build 0)  -->
<svg version="1.1" id="Layer_1" xmlns="http://www.w3.org/2000/svg" xmlns:xlink="http://www.w3.org/1999/xlink" x="0px" y="0px"
	 viewBox="0 0 100 100" style="enable-background:new 0 0 100 100;" xml:space="preserve">
<style type="text/css">
	.st0{fill:#C4C4C4;}
</style>
<path class="st0" d="M50,3.4C24.2,3.4,3.4,24.2,3.4,50S24.2,96.6,50,96.6S96.6,75.8,96.6,50S75.8,3.4,50,3.4z M66.1,72.2L49.8,55.9
	L33.5,72.2L26.3,65l16.3-16.3L27.8,33.9l7.2-7.2l14.8,14.8l14.8-14.8l7.2,7.2L57,48.7L73.3,65L66.1,72.2z"/>
</svg>
