<?xml version="1.0" encoding="utf-8"?>
<!-- Generator: Adobe Illustrator 24.2.0, SVG Export Plug-In . SVG Version: 6.00 Build 0)  -->
<svg version="1.1" id="Layer_1" xmlns="http://www.w3.org/2000/svg" xmlns:xlink="http://www.w3.org/1999/xlink" x="0px" y="0px"
	 viewBox="0 0 100 100" style="enable-background:new 0 0 100 100;" xml:space="preserve">
<style type="text/css">
	.st0{fill:#8DB602;}
</style>
<g>
	<path class="st0" d="M80.5,15.3H64.6v-2.9c0-4.8-3.9-8.7-8.7-8.7H44.3c-4.8,0-8.7,3.9-8.7,8.7v2.9H19.7c-4,0-7.2,3.2-7.2,7.2v5.8
		c0,1.6,1.3,2.9,2.9,2.9h69.5c1.6,0,2.9-1.3,2.9-2.9v-5.8C87.7,18.5,84.5,15.3,80.5,15.3z M58.8,15.3H41.4v-2.9
		c0-1.6,1.3-2.9,2.9-2.9h11.6c1.6,0,2.9,1.3,2.9,2.9C58.8,12.4,58.8,15.3,58.8,15.3z"/>
	<path class="st0" d="M82.2,37H18c-0.5,0-0.9,0.4-0.9,0.9L19.5,88c0.2,4.6,4,8.3,8.7,8.3h44c4.6,0,8.5-3.6,8.7-8.3l2.4-50.1
		C83.2,37.4,82.8,37,82.2,37z"/>
</g>
</svg>
